module gitlab.com/staticvoidlabs/clippy4

go 1.22.3

require (
	github.com/go-toast/toast v0.0.0-20190211030409-01e6764cf0a4
	github.com/gorilla/mux v1.8.1
)

require (
	cloud.google.com/go/auth v0.6.1 // indirect
	cloud.google.com/go/auth/oauth2adapt v0.2.2 // indirect
	cloud.google.com/go/compute/metadata v0.3.0 // indirect
	github.com/felixge/httpsnoop v1.0.4 // indirect
	github.com/go-logr/logr v1.4.1 // indirect
	github.com/go-logr/stdr v1.2.2 // indirect
	github.com/golang/groupcache v0.0.0-20210331224755-41bb18bfe9da // indirect
	github.com/golang/protobuf v1.5.4 // indirect
	github.com/google/s2a-go v0.1.7 // indirect
	github.com/google/uuid v1.6.0 // indirect
	github.com/googleapis/enterprise-certificate-proxy v0.3.2 // indirect
	github.com/googleapis/gax-go/v2 v2.12.5 // indirect
	go.opencensus.io v0.24.0 // indirect
	go.opentelemetry.io/contrib/instrumentation/net/http/otelhttp v0.49.0 // indirect
	go.opentelemetry.io/otel v1.24.0 // indirect
	go.opentelemetry.io/otel/metric v1.24.0 // indirect
	go.opentelemetry.io/otel/trace v1.24.0 // indirect
	golang.org/x/crypto v0.24.0 // indirect
	golang.org/x/net v0.26.0 // indirect
	golang.org/x/oauth2 v0.21.0 // indirect
	golang.org/x/sys v0.21.0 // indirect
	golang.org/x/term v0.21.0 // indirect
	golang.org/x/text v0.16.0 // indirect
	google.golang.org/genproto/googleapis/rpc v0.0.0-20240624140628-dc46fd24d27d // indirect
	google.golang.org/grpc v1.64.0 // indirect
	google.golang.org/protobuf v1.34.2 // indirect
)

require (
	github.com/atotto/clipboard v0.1.4
	github.com/inancgumus/screen v0.0.0-20190314163918-06e984b86ed3
	github.com/nu7hatch/gouuid v0.0.0-20131221200532-179d4d0c4d8d // indirect
	google.golang.org/api v0.187.0
)
